{
  "nodes": {
    "dc1pweb01.example.com": {
      ":ip": "192.168.32.10",
      "ports": [
{
          ":host": 8081,
          ":guest": 80,
          ":id": "http"
}
],
      ":memory": 512,
      ":bootstrap": "bootstrap-node.sh"
    },
    "dc1dapp01.example.com": {
      ":ip": "192.168.32.20",
      "ports": [
{
          ":host": 8082,
          ":guest": 80,
          ":id": "http"
}
],
      ":memory": 4096,
      ":bootstrap": "bootstrap-node.sh"
    },
    "dc2pweb01.example.com": {
      ":ip": "192.168.32.30",
      "ports": [
{
          ":host": 8083,
          ":guest": 80,
          ":id": "http"
}
],
      ":memory": 512,
      ":bootstrap": "bootstrap-node.sh"
    }

  }
}
