{
  "nodes": {
    "kmaster1.example.com": {
      ":ip": "192.168.32.10",
      "ports": [
        {
          ":host": 8081,
          ":guest": 80,
          ":id": "http"
        },
        {
          ":host": 8001,
          ":guest": 8001,
          ":id": "kubedashboard"
        }
      ],
      ":memory": 2048,
      ":bootstrap": "bootstrap-node.sh"
    },
    "kmaster2.example.com": {
      ":ip": "192.168.32.20",
      "ports": [
        {
          ":host": 8082,
          ":guest": 80,
          ":id": "http"
        }
      ],
      ":memory": 2048,
      ":bootstrap": "bootstrap-node.sh"
    },
    "knode1.example.com": {
      ":ip": "192.168.32.30",
      "ports": [
        {
          ":host": 8083,
          ":guest": 80,
          ":id": "http"
        }
      ],
      ":memory": 512,
      ":bootstrap": "bootstrap-node.sh"
    },
    "knode2.example.com": {
      ":ip": "192.168.32.40",
      "ports": [
        {
          ":host": 8084,
          ":guest": 80,
          ":id": "http"
        }
      ],
      ":memory": 512,
      ":bootstrap": "bootstrap-node.sh"
    }
  }
}